{
  "products": [
    {
      "name": "Smartphone Model X",
      "price": 599.99,
      "imageUrl": "https://encrypted-tbn1.gstatic.com/images?q=tbn:ANd9GcQ5v2ITQ2VS-d9QO7gFqUXiEgkYuVky1CqdBIzpLjacKQmE_A8e",
      "sku": "100001",
      "color": "Black",
      "vendorCode": "64234"
    },
    {
      "name": "Laptop Pro 15",
      "price": 1299.99,
      "imageUrl": "https://encrypted-tbn2.gstatic.com/images?q=tbn:ANd9GcSNJYKb2SdxVJceH5Y4aWVHXLAvhyQRouv4d5ugZiC6IKKegtYz",
      "sku": "100002",
      "color": "Silver",
      "vendorCode": "57153"
    },
    {
      "name": "Wireless Headphones",
      "price": 199.99,
      "imageUrl": "https://encrypted-tbn0.gstatic.com/images?q=tbn:ANd9GcTJeYrUmOKnZ8E1_NX2Kqt9tMuUvikQRX3BcuET_pmW65xQ6VlT",
      "sku": "100003",
      "color": "White",
      "vendorCode": "07699"
    },
    {
      "name": "4K Smart TV",
      "price": 799.99,
      "imageUrl": "https://media.licdn.com/dms/image/D4E12AQG5F2_zVf-PVw/article-cover_image-shrink_720_1280/0/1684017241284?e=2147483647&v=beta&t=Cj_xrerHYNNTrzxKP9UNPRqQV5B2dLgZZuowWYJafpw",
      "sku": "100004",
      "color": "Black",
      "vendorCode": "05795"
    },
    {
      "name": "Bluetooth Speaker",
      "price": 49.99,
      "imageUrl": "https://encrypted-tbn0.gstatic.com/images?q=tbn:ANd9GcTbAwy2Lc5GD6_t6Dn_H1-wQUMKISqjWHUMlxxZMzX7mldAYH8l",
      "sku": "100005",
      "color": "Blue",
      "vendorCode": "01157"
    },
    {
      "name": "Smartwatch Series 6",
      "price": 399.99,
      "imageUrl": "https://encrypted-tbn2.gstatic.com/images?q=tbn:ANd9GcTOQX42NyfgyW1voxY52VTfoSQl6dDTr_4q4aZvfzugS-dYaFf_",
      "sku": "100006",
      "color": "Red",
      "vendorCode": "20097"
    },
    {
      "name": "Gaming Console",
      "price": 499.99,
      "imageUrl": "https://encrypted-tbn2.gstatic.com/images?q=tbn:ANd9GcSt9dgNYCseQ5AQfSLOvNpwQZDNTsTcq3QMOwgbzDu-Bc8T1vkH",
      "sku": "100007",
      "color": "White",
      "vendorCode": "12473"
    },
    {
      "name": "Tablet Pro 11",
      "price": 699.99,
      "imageUrl": "https://encrypted-tbn3.gstatic.com/images?q=tbn:ANd9GcThmI9mUdW-2xWE8VT3Qf1q3hK3pcq3fOqN_cVE-WexCWwnSd73",
      "sku": "100008",
      "color": "Gold",
      "vendorCode": "08762"
    },
    {
      "name": "DSLR Camera",
      "price": 899.99,
      "imageUrl": "https://encrypted-tbn3.gstatic.com/images?q=tbn:ANd9GcQgR5pUzy9cEeRC1BzMiMJT6AjTTyH0INiwp17BBhcHWaST8xKe",
      "sku": "100009",
      "color": "Black",
      "vendorCode": "10652"
    },
    {
      "name": "Portable Charger",
      "price": 29.99,
      "imageUrl": "https://alta.ge/images/thumbnails/900/650/detailed/297/307271260.webp.jpg",
      "sku": "100010",
      "color": "Green",
      "vendorCode": "13120"
    }
  ]
}