<?xml version="1.0" standalone="no"?>
<!DOCTYPE svg PUBLIC "-//W3C//DTD SVG 20010904//EN"
 "http://www.w3.org/TR/2001/REC-SVG-20010904/DTD/svg10.dtd">
<svg version="1.0" xmlns="http://www.w3.org/2000/svg"
 width="850.000000pt" height="712.000000pt" viewBox="0 0 850.000000 712.000000"
 preserveAspectRatio="xMidYMid meet">

<g transform="translate(0.000000,712.000000) scale(0.100000,-0.100000)"
fill="#000000" stroke="none">
<path d="M4220 6490 c-143 -10 -276 -32 -445 -75 -665 -170 -1228 -639 -1527
-1273 -61 -128 -127 -325 -162 -483 -80 -360 -74 -724 19 -1087 127 -504 438
-973 850 -1282 328 -246 671 -388 1107 -457 128 -20 445 -22 578 -4 332 45
638 146 893 295 981 573 1409 1716 1048 2796 -165 491 -520 934 -979 1223
-396 249 -907 377 -1382 347z m520 -150 c449 -79 839 -275 1159 -585 368 -355
588 -782 667 -1290 23 -151 23 -470 0 -620 -76 -488 -288 -915 -621 -1249
-334 -336 -736 -545 -1215 -631 -146 -26 -472 -32 -641 -10 -480 61 -932 281
-1278 624 -345 341 -562 770 -637 1261 -22 141 -25 463 -5 595 37 257 103 472
216 700 114 231 235 402 412 580 340 341 771 561 1233 629 163 24 163 24 380
21 156 -2 235 -8 330 -25z"/>
<path d="M4210 5436 c-567 -89 -999 -523 -1085 -1088 -56 -367 61 -761 307
-1035 328 -365 796 -513 1271 -402 401 94 741 391 896 782 17 43 31 82 31 87
0 6 -99 10 -264 10 l-264 0 -41 -63 c-81 -125 -232 -250 -360 -298 -130 -49
-208 -62 -336 -56 -139 6 -221 28 -335 89 -207 110 -352 297 -405 520 -22 94
-20 277 5 374 126 493 671 740 1125 512 134 -68 252 -176 321 -294 l26 -44
264 0 c165 0 264 4 264 10 0 5 -11 38 -24 72 -152 404 -495 705 -916 804 -131
31 -351 40 -480 20z"/>
<path d="M2330 1262 c-104 -57 -119 -236 -25 -310 49 -39 185 -41 185 -3 0 15
-8 17 -59 13 -34 -2 -67 1 -80 8 -82 43 -81 217 0 261 14 7 46 10 85 6 47 -3
64 -1 68 9 7 19 -9 26 -78 31 -47 3 -69 0 -96 -15z"/>
<path d="M2845 1269 c-46 -27 -74 -63 -85 -111 -40 -164 84 -283 227 -219 56
26 83 78 83 163 0 72 -20 121 -62 152 -33 23 -132 33 -163 15z m136 -42 c65
-50 64 -204 -2 -251 -13 -9 -40 -16 -61 -16 -82 0 -118 42 -118 140 0 64 17
112 47 129 25 14 115 13 134 -2z"/>
<path d="M3350 1105 c0 -168 1 -175 20 -175 18 0 20 7 20 64 l0 64 62 7 c82
10 118 43 118 107 0 79 -44 108 -162 108 l-58 0 0 -175z m158 119 c22 -15 30
-66 14 -90 -13 -20 -50 -34 -91 -34 l-41 0 0 70 0 70 48 0 c27 0 57 -7 70 -16z"/>
<path d="M3810 1270 c0 -5 25 -55 55 -110 51 -93 55 -106 55 -165 0 -58 2 -65
20 -65 18 0 20 7 20 65 0 60 4 74 55 169 30 56 55 106 55 109 0 4 -8 7 -18 7
-12 0 -32 -27 -62 -85 -25 -47 -47 -85 -50 -85 -3 0 -25 38 -50 85 -30 58 -50
85 -62 85 -10 0 -18 -4 -18 -10z"/>
<path d="M4328 1274 c-5 -4 -8 -83 -8 -176 l0 -168 25 0 c24 0 25 2 25 70 l0
70 35 0 c32 0 37 -5 75 -70 33 -56 46 -70 65 -70 24 0 24 1 -21 76 -26 41 -45
77 -43 78 2 2 14 8 26 15 29 15 48 77 34 113 -16 42 -54 61 -134 66 -40 2 -75
1 -79 -4z m150 -50 c15 -10 22 -25 22 -46 0 -48 -25 -68 -82 -68 l-48 0 0 65
0 65 43 0 c23 0 53 -7 65 -16z"/>
<path d="M4830 1105 c0 -168 1 -175 20 -175 19 0 20 7 20 175 0 168 -1 175
-20 175 -19 0 -20 -7 -20 -175z"/>
<path d="M5244 1261 c-83 -38 -119 -161 -72 -250 36 -70 66 -86 156 -86 113 0
112 -1 112 100 l0 85 -60 0 c-53 0 -60 -2 -60 -20 0 -17 7 -20 41 -20 l40 0
-3 -52 -3 -53 -67 0 c-59 0 -71 3 -93 26 -57 56 -52 175 9 225 29 25 35 26
108 21 63 -4 78 -2 78 9 0 36 -119 45 -186 15z"/>
<path d="M5727 1274 c-4 -4 -7 -83 -7 -176 l0 -168 25 0 c25 0 25 1 25 80 l0
80 90 0 90 0 0 -80 c0 -73 2 -80 20 -80 19 0 20 7 20 175 0 168 -1 175 -20
175 -18 0 -20 -7 -20 -75 l0 -75 -90 0 -89 0 -3 72 c-2 56 -7 73 -18 76 -9 1
-19 0 -23 -4z"/>
<path d="M6247 1274 c-4 -4 -7 -13 -7 -21 0 -9 16 -13 55 -13 l55 0 0 -155 0
-155 25 0 25 0 0 154 0 155 53 3 c38 2 52 7 52 18 0 12 -22 15 -126 18 -69 1
-128 -1 -132 -4z"/>
<path d="M2610 510 c0 -127 2 -150 15 -150 13 0 15 23 15 150 0 127 -2 150
-15 150 -13 0 -15 -23 -15 -150z"/>
<path d="M2750 510 c0 -127 2 -150 15 -150 13 0 15 23 15 150 0 127 -2 150
-15 150 -13 0 -15 -23 -15 -150z"/>
<path d="M3321 651 c-15 -10 -8 -41 9 -41 15 0 25 29 14 40 -5 5 -15 5 -23 1z"/>
<path d="M3710 510 c0 -127 2 -150 15 -150 12 0 15 14 15 68 0 84 15 116 56
120 17 2 36 -3 42 -10 6 -8 12 -50 14 -93 3 -68 6 -80 22 -83 17 -4 18 3 15
88 -4 82 -6 94 -28 111 -28 23 -69 24 -99 3 -22 -15 -22 -15 -22 40 0 43 -3
56 -15 56 -13 0 -15 -23 -15 -150z"/>
<path d="M6430 604 c0 -55 0 -55 -22 -40 -34 24 -66 19 -99 -13 -25 -26 -29
-37 -29 -86 0 -46 4 -60 25 -80 26 -27 72 -33 108 -14 16 9 22 9 25 0 2 -6 8
-11 13 -11 5 0 9 66 9 150 0 127 -2 150 -15 150 -12 0 -15 -13 -15 -56z m-18
-71 c20 -18 25 -91 8 -124 -16 -30 -75 -26 -96 6 -18 28 -15 95 6 120 17 20
59 19 82 -2z"/>
<path d="M2342 515 c-57 -147 -59 -155 -38 -155 7 0 21 20 30 45 l18 45 57 0
57 0 15 -42 c9 -24 23 -44 32 -46 10 -2 17 0 17 5 0 4 -24 69 -53 143 -32 82
-59 136 -68 138 -11 2 -29 -34 -67 -133z m90 27 c10 -26 18 -50 18 -54 0 -5
-18 -8 -40 -8 -22 0 -40 3 -40 7 0 17 34 112 39 107 3 -3 13 -26 23 -52z"/>
<path d="M3040 505 c0 -122 2 -145 15 -145 12 0 15 13 15 60 0 60 0 60 29 60
25 0 34 -8 61 -56 31 -52 54 -74 67 -61 3 3 -11 32 -30 64 -35 56 -36 58 -17
73 30 24 42 67 28 98 -17 36 -53 52 -115 52 l-53 0 0 -145z m124 99 c39 -38 6
-94 -56 -94 l-38 0 0 55 0 55 39 0 c23 0 46 -7 55 -16z"/>
<path d="M4550 505 c0 -122 2 -145 15 -145 12 0 15 13 15 60 l0 60 33 0 c29 0
35 -6 65 -60 24 -43 39 -60 54 -60 21 0 17 10 -45 111 -7 11 -3 22 17 42 27
27 33 64 16 97 -13 24 -62 40 -121 40 l-49 0 0 -145z m130 95 c11 -11 20 -27
20 -35 0 -29 -38 -55 -80 -55 l-40 0 0 55 0 55 40 0 c27 0 47 -7 60 -20z"/>
<path d="M4000 595 c-5 -14 -14 -25 -20 -25 -5 0 -10 -4 -10 -10 0 -5 7 -10
15 -10 12 0 15 -15 15 -79 0 -90 12 -111 61 -111 38 0 39 27 2 32 -28 3 -28 4
-31 81 l-3 77 31 0 c38 0 40 18 3 22 -20 2 -29 9 -31 26 -4 29 -20 28 -32 -3z"/>
<path d="M3473 565 c-32 -22 -38 -63 -14 -95 18 -25 18 -29 4 -43 -12 -12 -14
-19 -5 -30 9 -10 7 -17 -8 -30 -11 -9 -20 -27 -20 -40 0 -38 30 -57 89 -57 61
0 89 12 101 45 20 52 -15 85 -91 85 -33 0 -40 3 -37 17 2 12 16 20 40 24 54 9
70 26 66 71 -3 31 0 38 14 38 40 0 14 18 -34 24 -74 8 -81 8 -105 -9z m92 -35
c15 -47 -23 -82 -65 -60 -13 7 -20 21 -20 39 0 35 6 41 46 41 24 0 34 -5 39
-20z m13 -169 c8 -4 12 -19 10 -32 -7 -50 -128 -49 -128 0 0 11 8 25 18 30 21
13 82 14 100 2z"/>
<path d="M4192 568 c-27 -14 -39 -53 -22 -74 7 -8 35 -24 62 -36 39 -17 48
-25 46 -42 -3 -19 -10 -21 -60 -21 -38 0 -58 -4 -58 -11 0 -28 92 -33 128 -8
17 12 22 24 20 47 -2 27 -11 36 -48 54 -65 32 -74 41 -58 60 9 11 24 14 55 10
28 -3 43 0 47 8 9 24 -70 33 -112 13z"/>
<path d="M4873 570 c-58 -24 -70 -143 -18 -187 38 -33 135 -31 135 2 0 10 -10
12 -34 8 -50 -8 -81 3 -94 32 -7 14 -12 28 -12 30 0 3 34 5 75 5 l75 0 0 31
c0 20 -10 40 -29 60 -30 29 -58 35 -98 19z m74 -32 c31 -40 25 -48 -38 -48
-59 0 -60 0 -48 23 7 12 17 25 23 29 17 12 53 9 63 -4z"/>
<path d="M5110 567 c-30 -15 -38 -58 -14 -78 9 -8 35 -23 58 -34 28 -14 41
-26 41 -40 0 -18 -7 -20 -57 -20 -38 0 -58 -4 -58 -11 0 -28 92 -33 128 -8 17
12 22 24 20 47 -3 28 -10 35 -61 60 -43 20 -57 32 -55 45 3 14 14 17 56 17 33
-1 52 3 52 11 0 24 -70 31 -110 11z"/>
<path d="M5363 570 c-30 -12 -53 -60 -53 -110 0 -58 42 -100 98 -100 50 0 72
8 72 25 0 10 -10 12 -34 8 -50 -8 -81 3 -94 32 -7 14 -12 28 -12 30 0 3 34 5
75 5 l75 0 0 31 c0 20 -10 40 -29 60 -30 29 -58 35 -98 19z m74 -32 c31 -40
25 -48 -37 -48 -52 0 -59 2 -53 18 11 31 25 42 53 42 15 0 32 -6 37 -12z"/>
<path d="M5636 559 c-21 -17 -26 -18 -26 -5 0 9 -7 16 -15 16 -12 0 -15 -18
-15 -106 0 -95 2 -105 18 -102 14 3 17 16 20 78 3 80 20 110 63 110 10 0 19 7
19 15 0 21 -33 19 -64 -6z"/>
<path d="M6059 565 c-28 -15 -49 -60 -49 -102 0 -32 26 -80 49 -93 37 -19 121
-10 121 14 0 7 -16 10 -46 8 -50 -4 -84 16 -84 50 0 16 9 18 70 18 68 0 70 1
70 25 0 75 -66 115 -131 80z m85 -37 c24 -34 20 -38 -39 -38 -59 0 -70 13 -39
44 22 23 60 20 78 -6z"/>
<path d="M3320 465 c0 -87 3 -105 15 -105 12 0 15 18 15 105 0 87 -3 105 -15
105 -12 0 -15 -18 -15 -105z"/>
<path d="M5762 559 c86 -243 90 -246 149 -94 21 55 39 101 39 103 0 1 -8 2
-17 2 -13 0 -26 -23 -49 -87 l-30 -86 -31 84 c-21 57 -36 85 -48 88 -12 2 -16
-2 -13 -10z"/>
</g>
</svg>
